M_dyn		M_BH		Up_error	Low_error
1.8103e+10	3.0019e+9	6.1656e+9	1.4923e+9
2.4197e+10	2.4142e+9	4.7361e+9	1.2150e+9
2.8310e+10	1.4117e+9	2.8882e+9	6.8801e+8
3.9650e+10	1.1996e+10	2.4627e+10	5.9201e+9
4.1084e+10	9.6352e+8	1.8813e+9	4.8616e+8
5.6798e+10	1.9254e+9	4.2900e+9	8.7196e+8
7.1979e+10	2.1510e+9	4.3374e+9	1.0416e+9
1.1981e+11	2.5417e+8	5.0312e+8	1.2611e+8
1.4018e+11	1.5193e+9	3.1191e+9	7.5432e+8		
1.5045e+11	7.8717e+8	1.7041e+9	3.6609e+8
2.2956e+11	4.9767e+8	1.0623e+9	2.3448e+8
2.4115e+11	2.6939e+9	5.5849e+9	1.3410e+9
