#Mag		L_FIR
-22.21589 81295642771.66472
-23.10811 1773676602063.48413
-24.27403 260956394033.80280
-24.52345 124376532508.62004
-24.45389 573497808307.69946
-24.53714 488580783997.00671
-24.40294 4632299154472.78223
-24.90254 1905936113726.87671
-25.13270 316457068935.34918
-25.23337 188014511692.41016
-25.25627 90228242111.75287
-25.49026 288141320850.17615
-25.51028 1498098326457.66235
-25.60626 2390034073592.43311
-25.62431 2713126337030.07080
-25.70841 4475389602747.25293
-26.00728 8323151144408.25488
-26.00712 7380978233309.71582
-26.10262 8049343951710.89941
-26.22188 8321661114404.06641
-26.53201 9257089744577.35352
-26.54376 8100264541572.63672
-26.11322 2899201386433.80713
-26.10089 2118609749422.37769
-25.89736 1101708595681.42505
-26.42063 399298275750.75629
-26.39931 2803380007898.23389
-26.41088 2132245471707.90771
-26.49392 1547663990681.46460
-26.63044 982937184126.05005
-26.61862 1057825684903.62549
-26.99272 344605369437.50366
-26.92845 937838241885.05908
-27.10737 1002417448647.26367
-26.60113 1437983082801.23193
-26.72061 1744891630845.79590
-26.75610 1409295214992.01221
-26.79801 1621273774771.98364
-26.91134 1710029887439.42822
-26.79250 2309306298731.71387
-26.81080 3181305270938.32129
-27.03334 14567810427694.35547
-27.11047 11005941599918.72070
-27.14490 3911464271785.12109
-27.26406 3732556041625.21533
-27.39570 5423473034356.65723
-27.60582 16976709933951.04688
-27.60437 5532195670576.46680
-27.81313 6072976537664.31250
-29.29678 3532494058979.84033

