log(L_bol)(1e46) log(L_IR)(1e46)
-0.094369 0.13288
-0.00042265 0.22023
0.18854 -0.14825
0.31429 -0.28568
0.29606 0.011938
0.37996 0.22417
0.42471 0.40312
0.47012 0.24284
0.43494 0.18667
0.48398 0.17624
0.48242 -0.029797
0.50014 -0.065187
0.48903 -0.40025
0.59889 -0.43153
0.62597 -0.23800
0.76256 0.10115
0.79615 -0.032064
0.86086 -0.032103
0.86521 -0.25063
0.93560 -0.15077
0.89574 0.17599
0.90168 0.14685
1.0185 -0.42346
1.0718 -0.63160
1.1520 -0.50886
1.2040 -0.011495
1.0333 0.038554
1.0348 0.23418
0.99138 0.40070
1.1424 0.37564
1.2544 0.23613
1.3467 0.17781
1.7362 0.53137

