log(L_bol)(1e46) log(L_IR)(1e46)
-1.3264 -1.5188
-0.93892 -1.1486
-0.82697 -1.2403
-0.70565 -1.1155
-0.67724 -0.60351
-0.64130 -0.93027
-0.40815 -0.83884
-0.35283 -1.0512
-0.34092 -1.1261
-0.33585 -1.7130
-0.27390 -0.30822
-0.23939 -0.90762
-0.22271 -1.4113
-0.22160 -0.97839
-0.050046 -1.4717
