# t_tau		t_edd
-0.41343 	-0.17235
-0.48155 	-0.13465
-0.67171 	-0.075045
-0.67171 	0.18934
-0.54399 	0.35000
-0.72848 	0.25538
-1.2053 	0.25173
-1.3500 	0.20437
-0.96689 	0.58562
-1.0804 	0.77435
-0.53832 	0.85990
