7.71549 4.31614
7.77655 4.31614
7.83355 4.34110
7.89868 4.34110
7.97604 4.35774
8.07376 4.39101
8.16740 4.41597
8.30177 4.46589
8.41577 4.49085
8.57861 4.51581
8.68852 4.52413
8.73330 4.53245
8.78625 4.57404
8.86772 4.64060
8.87184 4.69884
8.92073 4.75707
9.09584 4.84859
9.21389 4.84859
9.42982 5.08153
9.46653 5.18136
9.54393 5.25624
9.56841 5.32280
9.65002 5.57238
9.72350 5.82196
9.78459 5.86356
9.94342 5.95507
10.07031 6.82862
10.09477 6.87022
10.12327 6.87854
10.15593 6.98669
10.15190 7.04493
10.28227 7.17804
10.41668 7.27787
10.55110 7.39434
10.68146 7.51913
10.77515 7.60233
10.80368 7.64393
10.82004 7.73544
10.86485 7.78536
10.88122 7.88519
10.91382 7.93511
10.92206 8.05158

