7.71146 4.37438
7.71146 4.37438
7.75624 4.37438
7.80917 4.39101
7.85394 4.38270
7.90686 4.39101
8.06561 4.38270
8.28542 4.38270
8.49304 4.40765
8.70065 4.42429
8.89198 4.44093
8.98161 4.54077
9.07529 4.60732
9.20560 4.67388
9.31555 4.72379
9.42551 4.79867
9.49474 4.83195
9.66163 4.82363
9.82039 4.83195
10.01169 4.82363
10.10533 4.84027
10.19083 4.86522
10.28855 4.89850
10.36593 4.94010
10.43922 4.97338
10.45148 5.03161
10.46374 5.08985
10.46381 5.17304
10.47205 5.28952
10.49654 5.38103
10.51698 5.48087
10.52935 5.67221
10.55800 5.87188
10.59077 6.12146
10.63169 6.37937
10.64812 6.57072
10.66051 6.78702
10.68517 7.07820
10.69753 7.26123
10.69761 7.35275
10.71800 7.40266
10.73840 7.46090
10.72626 7.54409
10.76703 7.62729
10.83221 7.69384
10.90146 7.75208
10.97477 7.80200

